<?xml version="1.0" encoding="utf-8"?>
<!-- Generator: Adobe Illustrator 16.0.4, SVG Export Plug-In . SVG Version: 6.00 Build 0)  -->
<!DOCTYPE svg PUBLIC "-//W3C//DTD SVG 1.1//EN" "http://www.w3.org/Graphics/SVG/1.1/DTD/svg11.dtd">
<svg version="1.1" id="Layer_1" xmlns="http://www.w3.org/2000/svg" xmlns:xlink="http://www.w3.org/1999/xlink" x="0px" y="0px"
	 width="200px" height="91.446px" viewBox="0 0 200 91.446" enable-background="new 0 0 200 91.446" xml:space="preserve">
<g>
	<path fill="#928C86" d="M173.399,22.032h-10.646C159.398,9.365,147.837,0,134.125,0c-13.254,0-24.497,8.75-28.264,20.774
		c-3.805-1.307-7.917-1.307-11.716,0C90.378,8.75,79.132,0,65.878,0c-13.712,0-25.27,9.365-28.625,22.032h-10.65v6.002h9.707
		c-0.028,0.522-0.044,1.047-0.044,1.579c0,16.328,13.284,29.613,29.612,29.613s29.613-13.285,29.613-29.613
		c0-0.972-0.05-1.931-0.142-2.878c2.984-1.247,6.323-1.247,9.307,0c-0.094,0.948-0.141,1.907-0.141,2.878
		c0,16.328,13.281,29.613,29.609,29.613c16.331,0,29.612-13.285,29.612-29.613c0-0.532-0.013-1.057-0.038-1.579h9.7V22.032z
		 M65.878,53.223c-13.02,0-23.613-10.591-23.613-23.61c0-13.021,10.593-23.61,23.613-23.61c13.018,0,23.614,10.59,23.614,23.61
		C89.492,42.631,78.896,53.223,65.878,53.223z M134.125,53.223c-13.018,0-23.61-10.591-23.61-23.61
		c0-13.021,10.593-23.61,23.61-23.61c13.02,0,23.613,10.59,23.613,23.61C157.738,42.631,147.145,53.223,134.125,53.223z"/>
	<g>
		<g>
			<path fill="#404041" d="M7.534,88.925c-3.512,0-4.871-2.454-4.893-4.812c-0.019-2.377,1.462-4.934,4.893-4.934
				c1.239,0,2.5,0.426,3.434,1.343l1.786-1.727c-1.465-1.443-3.289-2.173-5.22-2.173c-5.138,0-7.552,3.778-7.534,7.49
				c0.019,3.697,2.254,7.334,7.534,7.334c2.053,0,3.94-0.672,5.405-2.111l-1.83-1.849C10.175,88.42,8.772,88.925,7.534,88.925z"/>
			<path fill="#404041" d="M24.044,85.068c0,2.437-1.261,3.921-3.475,3.921c-2.21,0-3.676-1.358-3.676-3.921v-8.145h-2.66v8.145
				c0,4.285,2.902,6.359,6.316,6.359c3.572,0,6.15-2.156,6.15-6.359v-8.145h-2.657V85.068z"/>
			<polygon fill="#404041" points="31.999,76.902 29.32,76.902 29.32,91.121 39.31,91.121 39.31,88.645 31.999,88.645 			"/>
			<path fill="#404041" d="M38.25,76.902v2.439h4.512v11.779h2.679V79.342h4.509v-2.439C45.828,76.902,42.353,76.902,38.25,76.902z"
				/>
		</g>
		<g>
			<path fill="#404041" d="M61.64,76.683c-4.792,0-7.169,3.493-7.169,7.309c0,3.759,2.393,7.375,7.169,7.375
				c4.773,0,7.147-3.596,7.166-7.336C68.828,80.194,66.432,76.683,61.64,76.683z M61.64,90.351c-4.041,0-6.072-3.129-6.09-6.339
				c-0.025-3.346,2.009-6.313,6.09-6.313c4.081,0,6.112,3.026,6.112,6.313C67.752,87.222,65.703,90.351,61.64,90.351z"/>
			<polygon fill="#404041" points="80.968,78.003 80.968,76.902 71.406,76.902 71.406,91.143 72.5,91.143 72.5,84.703 
				80.685,84.703 80.685,83.669 72.5,83.669 72.5,78.003 			"/>
		</g>
		<g>
			<path fill="#404041" d="M93.567,76.887c-2.232,0-4.468,0.016-6.701,0.016v14.219h2.686v-4.184h4.015
				C100.534,86.938,100.516,76.887,93.567,76.887z M93.567,84.48h-4.015v-5.037h4.015C96.981,79.443,97,84.48,93.567,84.48z"/>
			<path fill="#404041" d="M100.557,91.121h10.634v-2.642h-7.977v-3.207h7.693v-2.497h-7.693v-3.27h7.977v-2.604h-10.634
				C100.557,81.638,100.557,86.389,100.557,91.121z"/>
			<path fill="#404041" d="M118.664,76.902c-1.748,0-3.836,0-5.587,0v14.219c1.751,0,3.839,0,5.587,0
				c4.978,0,7.169-3.635,7.106-7.232C125.707,80.38,123.538,76.902,118.664,76.902z M118.664,88.542h-2.927v-9.099h2.927
				c3.085,0,4.387,2.215,4.446,4.43C123.173,86.186,121.891,88.542,118.664,88.542z"/>
			<path fill="#404041" d="M132.452,76.902l-6.377,14.219h2.902l1.22-2.68h7.434l1.197,2.68h2.922l-6.377-14.219H132.452z
				 M131.272,85.942l2.642-6.053l2.638,6.053H131.272z"/>
			<path fill="#404041" d="M148.834,85.293h3.635v2.517c-1.12,0.894-2.092,1.139-3.208,1.139c-3.534,0-4.896-2.418-4.896-4.751
				c0-2.925,1.85-5.242,4.896-5.242c1.239,0,2.66,0.512,3.616,1.425l1.663-1.709c-1.459-1.441-3.367-2.171-5.279-2.171
				c-5.015,0-7.511,3.694-7.511,7.697c0,3.735,2.169,7.249,7.511,7.249c2.5,0,4.264-0.959,5.666-2.562v-5.989h-6.093V85.293z"/>
			<path fill="#404041" d="M163.797,76.622c-4.914,0-7.311,3.758-7.311,7.49c0,3.741,2.314,7.334,7.311,7.334
				c4.993,0,7.248-3.676,7.292-7.352C171.129,80.38,168.692,76.622,163.797,76.622z M163.797,88.989
				c-3.352,0-4.609-2.497-4.669-4.836c-0.063-2.396,1.317-5.096,4.669-5.096c3.349,0,4.688,2.678,4.65,5.076
				C168.403,86.471,167.146,88.989,163.797,88.989z"/>
			<path fill="#404041" d="M179.572,85.293h3.635v2.517c-1.117,0.894-2.092,1.139-3.208,1.139c-3.53,0-4.896-2.418-4.896-4.751
				c0-2.925,1.85-5.242,4.896-5.242c1.239,0,2.663,0.512,3.613,1.425l1.666-1.709c-1.462-1.441-3.37-2.171-5.279-2.171
				c-5.018,0-7.511,3.694-7.511,7.697c0,3.735,2.169,7.249,7.511,7.249c2.5,0,4.264-0.959,5.663-2.562v-5.989h-6.09V85.293z"/>
			<polygon fill="#404041" points="196.771,76.902 192.994,82.775 189.379,76.902 186.19,76.902 186.19,77.028 191.652,85.25 
				191.652,91.121 194.337,91.121 194.337,85.25 200,77.028 200,76.902 			"/>
		</g>
	</g>
</g>
</svg>
